^D:\MBF SECRET DOCUMENTS\ZTU\1 КУРС\АТАТАТАТАТАТА\DSA_LAB3\TASK2_2\TASK2_2.CPP
D:\MBF SECRET DOCUMENTS\ZTU\1 курс\атататататата\DSA_LAB3\TASK2_2\X64\DEBUG\VC143.PDB
D:\MBF SECRET DOCUMENTS\ZTU\1 курс\атататататата\DSA_LAB3\TASK2_2\X64\DEBUG\VC143.IDB
D:\MBF SECRET DOCUMENTS\ZTU\1 курс\атататататата\DSA_LAB3\TASK2_2\X64\DEBUG\TASK2_2.OBJ
