^D:\MBF SECRET DOCUMENTS\ZTU\1 КУРС\АТАТАТАТАТАТА\DSA_LAB3\TASK1\X64\DEBUG\TASK1.OBJ
D:\MBF SECRET DOCUMENTS\ZTU\1 курс\атататататата\DSA_LAB3\X64\DEBUG\TASK1.EXE
D:\MBF SECRET DOCUMENTS\ZTU\1 курс\атататататата\DSA_LAB3\TASK1\X64\DEBUG\TASK1.ILK
D:\MBF SECRET DOCUMENTS\ZTU\1 курс\атататататата\DSA_LAB3\X64\DEBUG\TASK1.PDB
